1 10 20
100 200 125
201 210 89
900 1000 174
1 1 1
1 2 2
15 15 18
291188 931733 525
694459 749751 504
238760 886106 525
762142 899808 525
515894 595890 452
702862 958156 525
466119 723141 509
665357 703604 442
515031 981604 525
635338 723694 504
134439 899293 525
962453 999213 458
907979 927291 476
617266 820522 509
102547 900813 525
234916 516045 470
991950 995212 365
948683 962354 414
97785 711474 509
613830 928340 525
261417 998261 525
560766 724689 509
210035 955060 525
430584 558662 470
745000 959095 525
109751 740212 509
907779 966387 507
406572 805845 509
49950 409882 443
530535 961118 525
488793 519781 470
747997 893912 525
245316 599111 470
537876 888567 525
471989 792789 509
167105 441770 449
759177 936996 525
277839 375019 441
346879 711820 509
283697 453738 449
317682 900200 525
154752 975621 525
902614 909841 445
575144 896034 525
367933 641314 509
320880 324002 353
966383 988240 458
259630 513543 470
298971 690869 509
208812 386246 443
756763 909697 525
339051 390285 441
111131 939514 525
760096 950334 525
887998 962839 507
532813 913173 525
420811 949134 525
290691 901681 525
487539 905995 525
684938 810710 504
846606 954777 507
116904 366789 443
912517 957890 507
941147 997214 458
764245 789380 468
602654 868659 525
822177 907021 525
742269 785010 468
341160 353496 441
257106 282307 407
943437 983439 458
669481 723719 504
349691 575685 470
446849 868074 525
680585 964362 525
690815 802175 504
263577 520682 470
828485 937767 525
903698 951046 507
851236 910806 476
296564 520921 470
761814 897116 525
34006 253845 443
544783 871138 525
27237 60525 340
388856 708749 509
308934 505611 449
698518 859355 525
572627 808378 509
145974 619146 470
909208 963085 507
656013 957493 525
692302 904777 525
497428 619497 470
808357 948083 525
566978 604096 434
636625 894827 525
529957 532649 346
304356 758828 509
800926 820507 450
800517 832139 450
420014 542469 470
562205 788426 509
195018 721203 509
16201 60586 340
909852 967285 507
152379 808104 509
48468 357990 443
926404 991255 507
438227 712458 509
968631 975209 458
521113 541468 408
785834 897010 525
692948 985216 525
890180 937326 476
807372 871355 525
746029 896005 525
278225 837388 509
598224 964881 525
379882 716893 509
699702 723760 504
756887 768310 468
337626 639666 509
83656 416025 449
63902 721698 509
82478 880941 525
687224 965449 525
740900 889375 525
540867 628426 509
860181 996297 507
385313 796191 509
346294 648022 509
970845 983551 427
252335 654804 509
887063 947065 507
189529 271414 443
829730 947551 525
877503 989698 507
562284 927553 525
336412 937971 525
911104 940335 507
621911 916760 525
211749 451641 449
55447 357709 443
863739 945397 507
955743 975184 458
969361 991658 458
768500 861287 525
502261 687904 509
477446 744019 509
140605 723609 509
896929 904111 401
909829 918326 476
371273 634998 509
427767 544828 470
221070 460708 449
109590 813088 509
712574 727939 411
533296 837623 509
993021 995562 365
523369 692715 509
579270 632012 509
168467 562957 470
712766 803292 468
400135 487117 449
840238 943958 507
324861 570867 470
373839 577222 470
357723 580065 470
564643 726202 509
588644 894669 525
151601 909420 525
113274 974226 525
191229 708438 509
291724 709759 509
131962 582704 470
435492 707129 509
414705 736179 509
291071 917895 525
313401 407670 441
727640 996313 525
924295 926156 352
613870 638382 509
150120 260036 443
735290 776156 468
374374 705066 509
668706 996136 525
100806 667212 509
159134 679838 509
589086 985072 525
99605 325274 443
213385 275927 443
187398 493645 449
23749 573579 470
934005 954040 507
68415 789498 509
447686 758190 509
89243 465816 449
684252 693867 442
946604 972249 458
775527 926290 525
843941 874376 432
994314 994737 365
656927 775512 504
741957 917148 525
974870 997221 427
667278 771060 504
623576 646998 509
325636 834577 509
332878 564351 470
576534 805450 509
677203 722598 504
652073 800310 504
968235 992304 458
217298 714903 509
869370 874234 432
908038 983082 507
484020 744268 509
664841 791918 504
867121 996222 507
353478 935532 525
900263 993565 507
673413 748820 504
256533 588465 470
470261 483228 413
380384 962471 525
407878 847808 525
830153 982523 525
49053 195563 383
534394 582819 452
390842 964139 525
511263 960904 525
42617 97956 351
954469 954482 277
293538 690435 509
566643 762211 509
920668 939669 507
804964 816790 406
960573 993129 458
60884 886957 525
755341 978014 525
64340 857480 525
917683 994645 507
571780 805235 509
384413 388570 348
765808 841087 525
582645 991053 525
263934 574258 470
842680 963525 507
944706 956655 414
